time;position;velocity
0;-36.28178344;32.45523179
0.151;-34.9728251;29.9586755
0.299;-33.72870788;30.56594595
0.45;-32.40701374;32.45523179
0.6;-31.10256308;30.1584
0.751;-29.84177441;29.9586755
0.899;-28.59765719;30.56594595
1.05;-27.32832138;29.9586755
1.201;-26.07172138;29.9586755
1.349;-24.8799625;28.01878378
1.5;-23.66404634;29.9586755
1.65;-22.4639656;27.6452
1.799;-21.31592187;27.83073826
1.95;-20.15630778;27.46211921
2.1;-19.00823863;27.6452
2.251;-17.85251569;27.46211921
2.399;-16.7120749;28.01878378
2.55;-15.54851708;27.46211921
2.701;-14.44899208;24.96556291
2.849;-13.41222773;25.47162162
3;-12.35444788;24.96556291
3.15;-11.31074866;25.132
3.298;-10.32292143;22.92445946
3.449;-9.370919576;22.46900662
3.6;-8.48082791;19.97245033
3.751;-7.590736243;22.46900662
3.899;-6.762364996;17.83013514
4.05;-5.969560773;19.97245033
4.201;-5.184185773;17.47589404
4.349;-4.510809062;15.28297297
4.5;-3.876141157;14.97933775
4.65;-3.24992162;15.0792
4.798;-2.67816862;12.73581081
4.949;-2.201637032;9.986225166
5.1;-1.782770366;9.986225166
5.251;-1.416262032;7.489668874
5.399;-1.105232728;7.641486486
5.55;-0.787898775;7.489668874
5.701;-0.578465442;2.496556291
5.848;-0.422777417;5.128979592
5.999;-0.262852984;2.496556291
6.15;-0.210494651;0
6.298;-0.158136318;2.547162162
6.449;-0.104716667;0
6.6;-0.052358333;2.496556291
6.751;0;0
0;0;0
0;0;0
