time ;position;velocity
0;-30.31814044;20.1056
0.148;-29.485992;20.3772973
0.3;-28.63693795;19.84105263
0.45;-27.80471602;20.1056
0.601;-26.96419024;19.97245033
0.749;-26.13477876;20.3772973
0.9;-25.28855488;19.97245033
1.05;-24.4535955;20.1056
1.199;-23.67101295;17.7104698
1.35;-22.88071837;19.97245033
1.5;-22.04575899;20.1056
1.648;-21.21361055;20.3772973
1.799;-20.36738667;19.97245033
1.95;-19.52965334;19.97245033
2.101;-18.74427834;17.47589404
2.249;-17.96618496;20.3772973
2.4;-17.17231942;17.47589404
2.55;-16.38937163;20.1056
2.698;-15.60958152;17.83013514
2.85;-14.86665922;17.36092105
3;-14.0861067;20.1056
3.148;-13.30631659;17.83013514
3.299;-12.61822903;14.97933775
3.45;-11.9375707;17.47589404
3.6;-11.20698124;17.5924
3.749;-10.52876629;15.18040268
3.9;-9.948607849;12.48278146
4.05;-9.374399902;15.0792
4.198;-8.802646902;12.73581081
4.349;-8.27375698;12.48278146
4.5;-7.80253198;9.986225166
4.648;-7.387826241;10.18864865
4.799;-7.017072637;7.489668874
4.95;-6.702922637;7.489668874
5.1;-6.389812869;7.5396
5.248;-6.130115536;5.094324324
5.4;-5.917852022;4.960263158
5.55;-5.762154873;2.5132
5.698;-5.658136318;2.547162162
5.849;-5.552358333;2.496556291
6;-5.5;0
0;0;0
0;0;0
