time;position;velocity
0;-22.59816469;27.46211921
0.15;-21.50245388;25.132
0.298;-20.46226832;25.47162162
0.45;-19.34859242;27.28144737
0.6;-18.2566456;25.132
0.748;-17.21646005;25.47162162
0.899;-16.1586802;24.96556291
1.05;-15.0591552;27.46211921
1.2;-13.96344439;25.132
1.349;-12.91976827;25.30067114
1.5;-11.86557364;24.96556291
1.65;-10.82187442;25.132
1.798;-9.78168886;25.47162162
1.949;-8.72390902;24.96556291
2.1;-7.676742352;24.96556291
2.248;-6.639978003;25.47162162
2.399;-5.582198161;24.96556291
2.55;-4.535031494;24.96556291
2.7;-3.491332267;25.132
2.848;-2.503505045;22.92445946
3;-1.443602567;27.28144737
3.15;-0.351655747;25.132
3.298;0.636171475;22.92445946
3.449;1.69289;27.46211921
3.6;2.792415;24.96556291
3.75;3.783755894;22.6188
3.899;4.775422727;25.30067114
4.05;5.829617358;24.96556291
4.2;6.873316586;25.132
4.348;7.861143808;22.92445946
4.499;8.865503999;24.96556291
4.647;9.849910015;22.92445946
4.798;10.80191187;22.46900662
4.949;11.74436187;22.46900662
0;0;0
0;0;0
