time;position;velocity
0;-42.24871007;17.47589404
0.151;-41.56805173;14.97933775
0.299;-40.89363479;17.83013514
0.45;-40.20554724;14.97933775
0.601;-39.5248889;17.47589404
0.751;-38.84665778;15.0792
0.9;-38.16809378;17.7104698
1.051;-37.48251587;14.97933775
1.201;-36.803938;17.5924
1.349;-36.12816644;15.28297297
1.5;-35.4411402;17.47589404
1.651;-34.70812354;17.47589404
1.799;-34.03474683;15.28297297
1.95;-33.34772059;17.47589404
2.101;-32.66706225;14.97933775
2.251;-31.98848439;17.5924
2.399;-31.31271283;15.28297297
2.55;-30.62568659;17.47589404
2.701;-29.89266992;17.47589404
2.849;-29.21929321;15.28297297
3;-28.53226697;17.47589404
3.151;-27.85160864;14.97933775
3.301;-27.17303077;17.5924
3.45;-26.49481583;15.18040268
3.601;-25.80994072;17.47589404
3.751;-25.07935126;17.5924
3.899;-24.4035797;15.28297297
4.05;-23.71655346;17.47589404
4.201;-23.03589513;14.97933775
4.349;-22.36147819;17.83013514
4.5;-21.6210323;17.47589404
4.65;-20.94280117;15.0792
4.801;-20.2600485;17.47589404
4.949;-19.58667179;15.28297297
5.1;-18.89964555;17.47589404
5.251;-18.16662889;17.47589404
5.399;-17.49325218;15.28297297
5.55;-16.80622594;17.47589404
5.701;-16.1255676;14.97933775
5.851;-15.44698973;17.5924
6;-14.82113312;12.65033557
6.15;-14.19107613;17.5924
6.301;-13.50797441;14.97933775
6.449;-12.83355747;17.83013514
6.6;-12.14546991;14.97933775
6.751;-11.46481158;17.47589404
6.899;-10.79143487;15.28297297
7.05;-10.10440863;17.47589404
7.201;-9.423750295;14.97933775
7.351;-8.745172426;17.5924
7.499;-8.06940087;15.28297297
7.65;-7.382374631;17.47589404
7.801;-6.701716298;14.97933775
7.949;-6.027299355;17.83013514
8.1;-5.339211799;14.97933775
8.251;-4.658553466;17.47589404
8.398;-3.987603962;15.38693878
8.55;-3.348618588;14.88078947
8.701;-2.670027031;17.47589404
8.851;-1.991795905;15.0792
8.999;-1.367684572;15.28297297
9.15;-0.680658333;17.47589404
9.301;0;14.97933775
0;0;0
0;0;0
