time;position;velocity
0;-29.2235284;27.6452
0.149;-28.12784301;25.30067114
0.3;-27.02129005;27.46211921
0.45;-25.8732209;27.6452
0.598;-24.78137512;25.47162162
0.749;-23.72359528;24.96556291
0.897;-22.68683093;25.47162162
1.048;-21.62905108;24.96556291
1.199;-20.63424275;22.46900662
1.35;-19.69179275;22.46900662
1.5;-18.75246345;22.6188
1.648;-17.81629645;22.92445946
1.8;-16.91346897;19.84105263
1.947;-16.08951414;20.51591837
2.098;-15.29274141;17.47589404
2.249;-14.50736641;19.97245033
2.399;-13.72476536;17.5924
2.55;-12.98930531;17.47589404
2.699;-12.31350139;15.18040268
2.85;-11.68098461;14.97933775
3;-11.10712341;12.566
3.148;-10.5346723;15.28297297
3.299;-10.00472106;9.986225166
3.447;-9.53765699;12.73581081
3.598;-9.0611254;9.986225166
3.749;-8.64225873;9.986225166
3.899;-8.27713737;7.5396
4.05;-7.909581873;9.986225166
4.198;-7.547234467;7.641486486
4.35;-7.228839197;7.440394737
4.5;-6.86439764;10.0528
4.648;-6.500681751;7.641486486
4.799;-6.183347798;7.489668874
4.949;-5.817879696;10.0528
5.1;-5.449975141;7.489668874
5.249;-5.137905604;7.590201342
5.399;-4.770343077;10.0528
5.55;-4.402438521;7.489668874
5.698;-4.039050883;10.18864865
5.849;-3.615938946;9.986225166
5.997;-3.25359154;7.641486486
6.148;-2.883899254;9.986225166
6.299;-2.465032587;9.986225166
6.449;-2.047552896;10.0528
6.6;-1.627290007;9.986225166
6.748;-1.212584268;10.18864865
6.899;-0.789472331;9.986225166
7.05;-0.370605664;9.986225166
7.198;0.044100075;10.18864865
7.349;0.467212012;9.986225166
7.499;0.884691703;10.0528
7.648;1.302162148;10.12026846
7.799;1.72384;9.986225166
7.949;2.141319691;10.0528
8.1;2.56158258;9.986225166
8.248;2.976288319;10.18864865
8.399;3.45175859;12.48278146
8.55;3.92298359;9.986225166
8.698;4.337689329;10.18864865
8.849;4.760801266;9.986225166
8.999;5.178280957;10.0528
9.147;5.594355179;10.18864865
9.298;6.069825449;12.48278146
0;0;0
0;0;0
