time;position;velocity
0;-44.49598998;19.84105263
0.147;-43.72439349;17.95142857
0.298;-42.92904548;19.97245033
0.449;-42.09131214;19.97245033
0.599;-41.3087111;17.5924
0.75;-40.52089271;19.97245033
0.899;-39.74106561;17.7104698
1.049;-38.95323082;20.1056
1.197;-38.17344071;17.83013514
1.348;-37.43299482;17.47589404
1.499;-36.64761982;19.97245033
1.647;-35.87056668;17.83013514
1.798;-35.07776245;19.97245033
1.949;-34.29238745;17.47589404
2.099;-33.56179799;17.5924
2.25;-32.77397961;19.97245033
2.398;-31.99692646;17.83013514
2.549;-31.25648057;17.47589404
2.697;-30.53074553;17.83013514
2.848;-29.7379413;19.97245033
2.999;-28.9525663;17.47589404
3.149;-28.22197684;17.5924
3.298;-27.49140357;17.7104698
3.449;-26.70110899;19.97245033
3.599;-25.91850794;17.5924
3.747;-25.24273639;15.28297297
3.898;-24.55571015;17.47589404
4.049;-23.82269348;17.47589404
4.197;-23.09695844;17.83013514
4.348;-22.35651255;17.47589404
4.499;-21.57113755;19.97245033
4.649;-20.7885365;17.5924
4.797;-20.06040661;17.83013514
4.948;-19.31996072;17.47589404
5.099;-18.58694405;17.47589404
5.247;-17.86120901;17.83013514
5.398;-17.06840479;19.97245033
5.549;-16.28302979;17.47589404
5.699;-15.55244033;17.5924
5.848;-14.82186705;17.7104698
5.999;-14.03157247;19.97245033
6.149;-13.24897143;17.5924
6.297;-12.52084154;17.83013514
6.448;-11.78039565;17.47589404
6.599;-10.99502065;19.97245033
6.747;-10.2179675;17.83013514
6.898;-9.425163279;19.97245033
7.049;-8.639788279;17.47589404
7.199;-7.856840486;20.1056
7.347;-7.077050375;17.83013514
7.498;-6.284246152;19.97245033
7.649;-5.498871152;17.47589404
7.797;-4.720777775;20.3772973
7.948;-3.926912234;17.47589404
8.099;-3.141537234;19.97245033
8.249;-2.358936186;17.5924
8.398;-1.576004575;20.24053691
8.548;-0.787818389;17.5924
8.699;0;19.97245033
0;0;0
0;0;0
