time;position;velocity
0;-46.27437319;19.97245033
0.149;-45.44218776;20.24053691
0.3;-44.65119039;17.47589404
0.447;-43.92788255;17.95142857
0.598;-43.13253453;19.97245033
0.749;-42.2948012;19.97245033
0.897;-41.51774806;17.83013514
1.048;-40.72494383;19.97245033
1.199;-39.8872105;19.97245033
1.349;-39.05225112;20.1056
1.497;-38.27246101;17.83013514
1.648;-37.47965678;19.97245033
1.8;-36.6391495;19.84105263
1.947;-35.86755301;17.95142857
2.098;-35.07220499;19.97245033
2.249;-34.23447166;19.97245033
2.399;-33.45187061;17.5924
2.55;-32.66405222;19.97245033
2.699;-31.88422512;17.7104698
2.849;-31.09639034;20.1056
2.997;-30.31660023;17.83013514
3.148;-29.57615434;17.47589404
3.299;-28.79077934;19.97245033
3.447;-28.01372619;17.83013514
3.598;-27.22092197;19.97245033
3.749;-26.43554697;17.47589404
3.899;-25.70495751;17.5924
4.05;-24.91713912;19.97245033
4.198;-24.14008597;17.83013514
4.349;-23.39964008;17.47589404
4.497;-22.67390504;17.83013514
4.648;-21.88110082;19.97245033
4.799;-21.09572582;17.47589404
4.949;-20.36513636;17.5924
5.098;-19.63456308;17.7104698
5.249;-18.8442685;19.97245033
5.399;-18.06166746;17.5924
5.547;-17.3858959;15.28297297
5.698;-16.69886966;17.47589404
5.849;-15.96585299;17.47589404
5.997;-15.24011795;17.83013514
6.148;-14.49967206;17.47589404
6.299;-13.71429706;19.97245033
6.449;-12.93169601;17.5924
6.597;-12.20356612;17.83013514
6.748;-11.46312023;17.47589404
6.899;-10.73010357;17.47589404
7.047;-10.00436852;17.83013514
7.198;-9.2115643;19.97245033
7.349;-8.4261893;17.47589404
7.499;-7.695599841;17.5924
7.648;-6.965026563;17.7104698
7.799;-6.174731988;19.97245033
7.949;-5.39213094;17.5924
8.097;-4.664001051;17.83013514
8.248;-3.923555161;17.47589404
8.399;-3.138180161;19.97245033
8.547;-2.361127016;17.83013514
8.698;-1.568322793;19.97245033
8.849;-0.782947793;17.47589404
8.999;0;20.1056
9.147;0.779790111;17.83013514
9.298;1.572594334;19.97245033
9.449;2.357969334;17.47589404
9.597;3.136062712;20.3772973
9.748;3.929928252;17.47589404
9.899;4.715303252;19.97245033
10.049;5.497904301;17.5924
10.198;6.280835912;20.24053691
10.348;7.069022097;17.5924
10.499;7.856840486;19.97245033
0;0;0
0;0;0
