time;position;velocity
0;-47.6998929;17.83013514
0.151;-47.01180535;14.97933775
0.302;-46.33114702;17.47589404
0.45;-45.6577703;15.28297297
0.601;-44.97074407;17.47589404
0.752;-44.29008573;14.97933775
0.902;-43.61150786;17.5924
1.05;-42.93573631;15.28297297
1.201;-42.24871007;17.47589404
1.352;-41.56805173;14.97933775
1.5;-40.89363479;17.83013514
1.651;-40.20554724;14.97933775
1.802;-39.5248889;17.47589404
1.952;-38.84665778;15.0792
2.101;-38.16809378;17.7104698
2.252;-37.48251587;14.97933775
2.402;-36.803938;17.5924
2.55;-36.12816644;15.28297297
2.701;-35.4411402;17.47589404
2.852;-34.70812354;17.47589404
3;-34.03474683;15.28297297
3.151;-33.34772059;17.47589404
3.302;-32.66706225;14.97933775
3.452;-31.98848439;17.5924
3.6;-31.31271283;15.28297297
3.751;-30.62568659;17.47589404
3.902;-29.89266992;17.47589404
4.05;-29.21929321;15.28297297
4.201;-28.53226697;17.47589404
4.352;-27.85160864;14.97933775
4.502;-27.17303077;17.5924
4.651;-26.49481583;15.18040268
4.802;-25.80994072;17.47589404
4.952;-25.07935126;17.5924
5.1;-24.4035797;15.28297297
5.251;-23.71655346;17.47589404
5.402;-23.03589513;14.97933775
5.55;-22.36147819;17.83013514
5.701;-21.6210323;17.47589404
5.851;-20.94280117;15.0792
6.002;-20.2600485;17.47589404
6.15;-19.58667179;15.28297297
6.301;-18.89964555;17.47589404
6.452;-18.16662889;17.47589404
6.6;-17.49325218;15.28297297
6.751;-16.80622594;17.47589404
6.902;-16.1255676;14.97933775
7.052;-15.44698973;17.5924
7.201;-14.82113312;12.65033557
7.351;-14.19107613;17.5924
7.502;-13.50797441;14.97933775
7.65;-12.83355747;17.83013514
7.801;-12.14546991;14.97933775
7.952;-11.46481158;17.47589404
8.1;-10.79143487;15.28297297
8.251;-10.10440863;17.47589404
8.402;-9.423750295;14.97933775
8.552;-8.745172426;17.5924
8.7;-8.06940087;15.28297297
8.851;-7.382374631;17.47589404
9.002;-6.701716298;14.97933775
9.15;-6.027299355;17.83013514
9.301;-5.339211799;14.97933775
9.452;-4.658553466;17.47589404
9.599;-3.987603962;15.38693878
9.751;-3.348618588;14.88078947
9.902;-2.670027031;17.47589404
10.052;-1.991795905;15.0792
10.2;-1.367684572;15.28297297
10.351;-0.680658333;17.47589404
10.502;0;14.97933775
0;0;0
0;0;0
