time;position;velocity
0;-36.02825872;20.3772973
0.151;-35.12967651;22.46900662
0.302;-34.23958485;19.97245033
0.452;-33.40462546;20.1056
0.601;-32.56968457;20.24053691
0.752;-31.67397054;22.46900662
0.902;-30.78699957;20.1056
1.053;-29.94647379;19.97245033
1.201;-29.11706231;20.3772973
1.352;-28.27083843;19.97245033
1.5;-27.44142696;20.3772973
1.651;-26.59520308;19.97245033
1.802;-25.70511142;22.46900662
1.952;-24.81814044;20.1056
2.1;-23.985992;20.3772973
2.252;-23.13693795;19.84105263
2.402;-22.30471602;20.1056
2.553;-21.46419024;19.97245033
2.701;-20.63477876;20.3772973
2.852;-19.78855488;19.97245033
3.002;-18.9535955;20.1056
3.151;-18.17101295;17.7104698
3.302;-17.38071837;19.97245033
3.452;-16.54575899;20.1056
3.6;-15.71361055;20.3772973
3.751;-14.86738667;19.97245033
3.902;-14.02965334;19.97245033
4.053;-13.24427834;17.47589404
4.201;-12.46618496;20.3772973
4.352;-11.67231942;17.47589404
4.502;-10.88937163;20.1056
4.65;-10.10958152;17.83013514
4.802;-9.36665922;17.36092105
4.952;-8.586106698;20.1056
5.1;-7.806316587;17.83013514
5.251;-7.118229031;14.97933775
5.402;-6.437570697;17.47589404
5.552;-5.706981238;17.5924
5.701;-5.028766294;15.18040268
5.852;-4.448607849;12.48278146
6.002;-3.874399902;15.0792
6.15;-3.302646902;12.73581081
6.301;-2.77375698;12.48278146
6.452;-2.30253198;9.986225166
6.6;-1.887826241;10.18864865
6.751;-1.517072637;7.489668874
6.902;-1.202922637;7.489668874
7.052;-0.889812869;7.5396
7.2;-0.630115536;5.094324324
7.352;-0.417852022;4.960263158
7.502;-0.262154873;2.5132
7.65;-0.158136318;2.547162162
7.801;-0.052358333;2.496556291
7.952;0;0
0;0;0
0;0;0
