time;position;velocity
0;-49.37458854;17.83013514
0.151;-48.58178432;19.97245033
0.302;-47.74405099;19.97245033
0.452;-46.9090916;20.1056
0.6;-46.12930149;17.83013514
0.751;-45.33649727;19.97245033
0.903;-44.49598998;19.84105263
1.05;-43.72439349;17.95142857
1.201;-42.92904548;19.97245033
1.352;-42.09131214;19.97245033
1.502;-41.3087111;17.5924
1.653;-40.52089271;19.97245033
1.802;-39.74106561;17.7104698
1.952;-38.95323082;20.1056
2.1;-38.17344071;17.83013514
2.251;-37.43299482;17.47589404
2.402;-36.64761982;19.97245033
2.55;-35.87056668;17.83013514
2.701;-35.07776245;19.97245033
2.852;-34.29238745;17.47589404
3.002;-33.56179799;17.5924
3.153;-32.77397961;19.97245033
3.301;-31.99692646;17.83013514
3.452;-31.25648057;17.47589404
3.6;-30.53074553;17.83013514
3.751;-29.7379413;19.97245033
3.902;-28.9525663;17.47589404
4.052;-28.22197684;17.5924
4.201;-27.49140357;17.7104698
4.352;-26.70110899;19.97245033
4.502;-25.91850794;17.5924
4.65;-25.24273639;15.28297297
4.801;-24.55571015;17.47589404
4.952;-23.82269348;17.47589404
5.1;-23.09695844;17.83013514
5.251;-22.35651255;17.47589404
5.402;-21.57113755;19.97245033
5.552;-20.7885365;17.5924
5.7;-20.06040661;17.83013514
5.851;-19.31996072;17.47589404
6.002;-18.58694405;17.47589404
6.15;-17.86120901;17.83013514
6.301;-17.06840479;19.97245033
6.452;-16.28302979;17.47589404
6.602;-15.55244033;17.5924
6.751;-14.82186705;17.7104698
6.902;-14.03157247;19.97245033
7.052;-13.24897143;17.5924
7.2;-12.52084154;17.83013514
7.351;-11.78039565;17.47589404
7.502;-10.99502065;19.97245033
7.65;-10.2179675;17.83013514
7.801;-9.425163279;19.97245033
7.952;-8.639788279;17.47589404
8.102;-7.856840486;20.1056
8.25;-7.077050375;17.83013514
8.401;-6.284246152;19.97245033
8.552;-5.498871152;17.47589404
8.7;-4.720777775;20.3772973
8.851;-3.926912234;17.47589404
9.002;-3.141537234;19.97245033
9.152;-2.358936186;17.5924
9.301;-1.576004575;20.24053691
9.451;-0.787818389;17.5924
9.602;0;19.97245033
0;0;0
0;0;0
