time;position;velocity
0;-23.19329912;19.97245033
0.148;-22.41624597;17.83013514
0.299;-21.67580008;17.47589404
0.447;-20.95006504;17.83013514
0.598;-20.15726082;19.97245033
0.749;-19.37188582;17.47589404
0.899;-18.64129636;17.5924
1.048;-17.91072308;17.7104698
1.199;-17.1204285;19.97245033
1.349;-16.33782746;17.5924
1.497;-15.6620559;15.28297297
1.648;-14.97502966;17.47589404
1.799;-14.24201299;17.47589404
1.947;-13.51627795;17.83013514
2.098;-12.77583206;17.47589404
2.249;-11.99045706;19.97245033
2.399;-11.20785601;17.5924
2.547;-10.47972612;17.83013514
2.698;-9.73928023;17.47589404
2.849;-9.00626357;17.47589404
2.997;-8.28052852;17.83013514
3.148;-7.4877243;19.97245033
3.299;-6.7023493;17.47589404
3.449;-5.971759841;17.5924
3.598;-5.241186563;17.7104698
3.749;-4.450891988;19.97245033
3.899;-3.66829094;17.5924
4.047;-2.940161051;17.83013514
4.198;-2.199715161;17.47589404
4.349;-1.414340161;19.97245033
4.497;-0.637287016;17.83013514
4.648;0.155517207;19.97245033
4.799;0.940892207;17.47589404
4.949;1.72384;20.1056
5.097;2.503630111;17.83013514
5.248;3.296434334;19.97245033
5.399;4.081809334;17.47589404
5.547;4.859902712;20.3772973
5.698;5.653768252;17.47589404
5.849;6.439143252;19.97245033
5.999;7.221744301;17.5924
6.148;8.004675912;20.24053691
6.298;8.792862097;17.5924
6.449;9.580680486;19.97245033
0;0;0
0;0;0
