time;position;velocity
0;-28.6561225;28.01878378
0.151;-27.44020634;29.9586755
0.301;-26.2401256;27.6452
0.45;-25.09208187;27.83073826
0.601;-23.93246778;27.46211921
0.751;-22.78439863;27.6452
0.902;-21.62867569;27.46211921
1.05;-20.4882349;28.01878378
1.201;-19.32467708;27.46211921
1.352;-18.22515208;24.96556291
1.5;-17.18838773;25.47162162
1.651;-16.13060788;24.96556291
1.801;-15.08690866;25.132
1.949;-14.09908143;22.92445946
2.1;-13.14707958;22.46900662
2.251;-12.25698791;19.97245033
2.402;-11.36689624;22.46900662
2.55;-10.538525;17.83013514
2.701;-9.74572077;19.97245033
2.852;-8.96034577;17.47589404
3;-8.28696906;15.28297297
3.151;-7.652301157;14.97933775
3.301;-7.02608162;15.0792
3.449;-6.45432862;12.73581081
3.6;-5.977797032;9.986225166
3.751;-5.558930366;9.986225166
3.902;-5.192422032;7.489668874
4.05;-4.881392728;7.641486486
4.201;-4.564058775;7.489668874
4.352;-4.354625442;2.496556291
4.499;-4.198937417;5.128979592
4.65;-4.039012984;2.496556291
4.801;-3.986654651;0
4.949;-3.934296318;2.547162162
5.1;-3.880876667;0
5.251;-3.828518333;2.496556291
5.402;-3.77616;0
0;0;0
0;0;0
