time;position;velocity
0;-54.97173945;20.1056
0.151;-54.13121368;19.97245033
0.3;-53.29902824;20.24053691
0.451;-52.50803087;17.47589404
0.598;-51.78472304;17.95142857
0.749;-50.98937502;19.97245033
0.9;-50.15164169;19.97245033
1.048;-49.37458854;17.83013514
1.199;-48.58178432;19.97245033
1.35;-47.74405099;19.97245033
1.5;-46.9090916;20.1056
1.648;-46.12930149;17.83013514
1.799;-45.33649727;19.97245033
1.951;-44.49598998;19.84105263
2.098;-43.72439349;17.95142857
2.249;-42.92904548;19.97245033
2.4;-42.09131214;19.97245033
2.55;-41.3087111;17.5924
2.701;-40.52089271;19.97245033
2.85;-39.74106561;17.7104698
3;-38.95323082;20.1056
3.148;-38.17344071;17.83013514
3.299;-37.43299482;17.47589404
3.45;-36.64761982;19.97245033
3.598;-35.87056668;17.83013514
3.749;-35.07776245;19.97245033
3.9;-34.29238745;17.47589404
4.05;-33.56179799;17.5924
4.201;-32.77397961;19.97245033
4.349;-31.99692646;17.83013514
4.5;-31.25648057;17.47589404
4.648;-30.53074553;17.83013514
4.799;-29.7379413;19.97245033
4.95;-28.9525663;17.47589404
5.1;-28.22197684;17.5924
5.249;-27.49140357;17.7104698
5.4;-26.70110899;19.97245033
5.55;-25.91850794;17.5924
5.698;-25.24273639;15.28297297
5.849;-24.55571015;17.47589404
6;-23.82269348;17.47589404
6.148;-23.09695844;17.83013514
6.299;-22.35651255;17.47589404
6.45;-21.57113755;19.97245033
6.6;-20.7885365;17.5924
6.748;-20.06040661;17.83013514
6.899;-19.31996072;17.47589404
7.05;-18.58694405;17.47589404
7.198;-17.86120901;17.83013514
7.349;-17.06840479;19.97245033
7.5;-16.28302979;17.47589404
7.65;-15.55244033;17.5924
7.799;-14.82186705;17.7104698
7.95;-14.03157247;19.97245033
8.1;-13.24897143;17.5924
8.248;-12.52084154;17.83013514
8.399;-11.78039565;17.47589404
8.55;-10.99502065;19.97245033
8.698;-10.2179675;17.83013514
8.849;-9.425163279;19.97245033
9;-8.639788279;17.47589404
9.15;-7.856840486;20.1056
9.298;-7.077050375;17.83013514
9.449;-6.284246152;19.97245033
9.6;-5.498871152;17.47589404
9.748;-4.720777775;20.3772973
9.899;-3.926912234;17.47589404
10.05;-3.141537234;19.97245033
10.2;-2.358936186;17.5924
10.349;-1.576004575;20.24053691
10.499;-0.787818389;17.5924
10.65;0;19.97245033
0;0;0
0;0;0
