time;position;velocity
0;-58.22411984;27.46211921
0.151;-57.07223651;27.46211921
0.298;-55.93560991;28.20938776
0.449;-54.7680547;27.46211921
0.601;-53.55999885;29.76157895
0.748;-52.37642494;28.20938776
0.899;-51.20886973;27.46211921
1.05;-50.05698639;27.46211921
1.2;-48.85655891;30.1584
1.351;-47.64812858;27.46211921
1.5;-46.50387361;27.83073826
1.651;-45.34425952;27.46211921
1.798;-44.20763291;28.20938776
1.949;-42.98771937;29.9586755
2.1;-41.7834777;27.46211921
2.248;-40.64303692;28.01878378
2.399;-39.47947909;27.46211921
2.55;-38.27523742;29.9586755
2.7;-37.07515668;27.6452
2.851;-35.91943374;27.46211921
2.999;-34.77899296;28.01878378
3.151;-33.61154363;27.28144737
3.298;-32.53096408;25.64489796
3.449;-31.41719191;27.46211921
3.6;-30.26530858;27.46211921
3.75;-29.11723943;27.6452
3.901;-27.96151649;27.46211921
4.05;-26.86961985;25.30067114
4.2;-25.76658087;27.6452
4.348;-24.62237676;28.01878378
4.499;-23.45881893;27.46211921
4.65;-22.35929393;24.96556291
4.798;-21.27017125;28.01878378
4.949;-20.10661342;27.46211921
5.1;-19.00708842;24.96556291
5.25;-17.91103086;27.6452
5.401;-16.75530792;27.46211921
5.549;-15.61486714;28.01878378
5.7;-14.50366764;24.96556291
5.848;-13.41454496;28.01878378
5.999;-12.25098713;27.46211921
6.15;-11.15146213;24.96556291
6.3;-10.05540457;27.6452
6.449;-8.907360851;27.83073826
6.6;-7.800105091;24.96556291
6.75;-6.70404753;27.6452
6.901;-5.548324585;27.46211921
7.049;-4.460242135;25.47162162
7.2;-3.350103959;27.46211921
7.348;-2.262021509;25.47162162
7.499;-1.151883333;27.46211921
7.65;0;27.46211921
0;0;0
0;0;0
