time;position;velocity
0;-45.28638018;17.47589404
0.148;-44.56064514;17.83013514
0.299;-43.82019925;17.47589404
0.45;-43.08718258;17.47589404
0.6;-42.35659312;17.5924
0.748;-41.62846323;17.83013514
0.899;-40.94037568;14.97933775
1.05;-40.25971734;17.47589404
1.198;-39.5339823;17.83013514
1.349;-38.79353641;17.47589404
1.5;-38.11287808;14.97933775
1.65;-37.43430021;17.5924
1.799;-36.70372693;17.7104698
1.95;-36.01814902;14.97933775
2.097;-35.39817087;15.38693878
2.248;-34.70896424;17.47589404
2.399;-33.97594758;17.47589404
2.55;-33.29528924;14.97933775
2.698;-32.67323063;15.28297297
2.849;-31.98620439;17.47589404
3;-31.30554606;14.97933775
3.15;-30.67932652;15.0792
3.298;-30.00285686;17.83013514
3.449;-29.3147693;14.97933775
3.597;-28.69271069;15.28297297
3.748;-28.05804279;14.97933775
3.899;-27.42974279;14.97933775
4.05;-26.80144279;14.97933775
4.2;-26.17522325;15.0792
4.349;-25.54901758;15.18040268
4.5;-24.91650081;14.97933775
4.65;-24.29028127;15.0792
4.798;-23.66616994;15.28297297
4.949;-23.03150203;14.97933775
5.099;-22.45764083;12.566
5.248;-21.88344444;15.18040268
5.399;-21.30328599;12.48278146
5.55;-20.77970266;12.48278146
5.7;-20.25785305;12.566
5.848;-19.7901186;10.18864865
5.999;-19.31464833;12.48278146
6.15;-18.84342333;9.986225166
6.298;-18.48107592;7.641486486
6.449;-18.11138364;9.986225166
6.599;-17.74626228;7.5396
6.75;-17.43106511;7.489668874
6.899;-17.17135391;5.060134228
7.05;-16.90815665;7.489668874
7.2;-16.59504688;7.5396
7.348;-16.33534955;5.094324324
7.499;-16.07143525;7.489668874
7.649;-15.81068381;5.0264
7.798;-15.60194859;5.060134228
7.949;-15.33875133;7.489668874
8.099;-15.0779999;5.0264
8.25;-14.86786845;4.993112583
8.398;-14.60815725;7.641486486
8.549;-14.34318163;4.993112583
8.7;-14.1337483;4.993112583
8.848;-13.87403709;7.641486486
8.999;-13.60906147;4.993112583
9.149;-13.3479633;7.5396
9.3;-13.03276613;7.489668874
9.449;-12.72069659;7.590201342
9.599;-12.4054924;7.5396
9.75;-12.09029523;7.489668874
9.898;-11.77926593;7.641486486
10.049;-11.46193197;7.489668874
10.2;-11.09542364;9.986225166
10.348;-10.73307623;7.641486486
10.499;-10.36338395;9.986225166
10.649;-9.998262591;7.5396
10.8;-9.630707091;9.986225166
10.948;-9.216001351;10.18864865
11.099;-8.792889414;9.986225166
11.25;-8.374022748;9.986225166
11.398;-8.011675341;7.641486486
11.549;-7.641983055;9.986225166
11.699;-7.224503364;10.0528
11.847;-6.808429142;10.18864865
11.999;-6.383902115;9.920526316
12.149;-5.96779115;10.0528
12.3;-5.547528261;9.986225166
12.448;-5.132822522;10.18864865
12.599;-4.709710585;9.986225166
12.75;-4.290843918;9.986225166
12.898;-3.876138179;10.18864865
13.049;-3.505384575;7.489668874
13.199;-3.139916474;10.0528
13.347;-2.723842251;10.18864865
13.498;-2.300730314;9.986225166
13.649;-1.881863648;9.986225166
13.8;-1.515355314;7.489668874
13.948;-1.151967676;10.18864865
14.099;-0.72885574;9.986225166
14.25;-0.362347406;7.489668874
14.397;0;10.25795918
0;0;0
0;0;0
