time;position;velocity
0;-62.93766311;27.46211921
0.151;-61.78577977;27.46211921
0.299;-60.59298066;30.56594595
0.45;-59.37600318;27.46211921
0.601;-58.22411984;27.46211921
0.752;-57.07223651;27.46211921
0.899;-55.93560991;28.20938776
1.05;-54.7680547;27.46211921
1.202;-53.55999885;29.76157895
1.349;-52.37642494;28.20938776
1.5;-51.20886973;27.46211921
1.651;-50.05698639;27.46211921
1.801;-48.85655891;30.1584
1.952;-47.64812858;27.46211921
2.101;-46.50387361;27.83073826
2.252;-45.34425952;27.46211921
2.399;-44.20763291;28.20938776
2.55;-42.98771937;29.9586755
2.701;-41.7834777;27.46211921
2.849;-40.64303692;28.01878378
3;-39.47947909;27.46211921
3.151;-38.27523742;29.9586755
3.301;-37.07515668;27.6452
3.452;-35.91943374;27.46211921
3.6;-34.77899296;28.01878378
3.752;-33.61154363;27.28144737
3.899;-32.53096408;25.64489796
4.05;-31.41719191;27.46211921
4.201;-30.26530858;27.46211921
4.351;-29.11723943;27.6452
4.502;-27.96151649;27.46211921
4.651;-26.86961985;25.30067114
4.801;-25.76658087;27.6452
4.949;-24.62237676;28.01878378
5.1;-23.45881893;27.46211921
5.251;-22.35929393;24.96556291
5.399;-21.27017125;28.01878378
5.55;-20.10661342;27.46211921
5.701;-19.00708842;24.96556291
5.851;-17.91103086;27.6452
6.002;-16.75530792;27.46211921
6.15;-15.61486714;28.01878378
6.301;-14.50366764;24.96556291
6.449;-13.41454496;28.01878378
6.6;-12.25098713;27.46211921
6.751;-11.15146213;24.96556291
6.901;-10.05540457;27.6452
7.05;-8.907360851;27.83073826
7.201;-7.800105091;24.96556291
7.351;-6.70404753;27.6452
7.502;-5.548324585;27.46211921
7.65;-4.460242135;25.47162162
7.801;-3.350103959;27.46211921
7.949;-2.262021509;25.47162162
8.1;-1.151883333;27.46211921
8.251;0;27.46211921
0;0;0
0;0;0
