time;position;velocity
0;-61.30480148;24.96556291
0.15;-60.20874392;27.6452
0.298;-59.06453981;28.01878378
0.449;-57.95334032;24.96556291
0.6;-56.85381532;27.46211921
0.748;-55.76573286;25.47162162
0.899;-54.65559469;27.46211921
1.05;-53.50371136;27.46211921
1.201;-52.35182802;27.46211921
1.348;-51.26755976;25.64489796
1.5;-50.1502258;27.28144737
1.65;-49.00592064;27.6452
1.798;-47.91407487;25.47162162
1.949;-46.80393669;27.46211921
2.1;-45.65205336;27.46211921
2.25;-44.50398421;27.6452
2.399;-43.35594049;27.83073826
2.55;-42.19632639;27.46211921
2.7;-41.10061558;25.132
2.848;-40.00807169;28.01878378
2.999;-38.84451386;27.46211921
3.15;-37.69263053;27.46211921
3.298;-36.60454808;25.47162162
3.449;-35.4944099;27.46211921
3.6;-34.34252657;27.46211921
3.75;-33.24681575;25.132
3.898;-32.20663019;25.47162162
4.05;-31.09295429;27.28144737
4.2;-30.00100747;25.132
4.348;-28.96082192;25.47162162
4.499;-27.90304208;24.96556291
4.65;-26.80351708;27.46211921
4.8;-25.70780626;25.132
4.949;-24.66413015;25.30067114
5.1;-23.60993552;24.96556291
5.25;-22.56623629;25.132
5.398;-21.52605073;25.47162162
5.549;-20.46827089;24.96556291
5.7;-19.42110422;24.96556291
5.848;-18.38433988;25.47162162
5.999;-17.32656003;24.96556291
6.15;-16.27939337;24.96556291
6.3;-15.23569414;25.132
6.448;-14.24786692;22.92445946
6.6;-13.18796444;27.28144737
6.75;-12.09601762;25.132
6.898;-11.1081904;22.92445946
7.049;-10.05147187;27.46211921
7.2;-8.951946873;24.96556291
7.35;-7.960605979;22.6188
7.499;-6.968939145;25.30067114
7.65;-5.914744515;24.96556291
7.8;-4.871045287;25.132
7.948;-3.883218065;22.92445946
8.099;-2.878857874;24.96556291
8.247;-1.894451858;22.92445946
8.398;-0.94245;22.46900662
8.549;0;22.46900662
0;0;0
0;0;0
