time;position;velocity
0;-30.31660023;17.83013514
0.151;-29.57615434;17.47589404
0.302;-28.79077934;19.97245033
0.45;-28.01372619;17.83013514
0.601;-27.22092197;19.97245033
0.752;-26.43554697;17.47589404
0.902;-25.70495751;17.5924
1.053;-24.91713912;19.97245033
1.201;-24.14008597;17.83013514
1.352;-23.39964008;17.47589404
1.5;-22.67390504;17.83013514
1.651;-21.88110082;19.97245033
1.802;-21.09572582;17.47589404
1.952;-20.36513636;17.5924
2.101;-19.63456308;17.7104698
2.252;-18.8442685;19.97245033
2.402;-18.06166746;17.5924
2.55;-17.3858959;15.28297297
2.701;-16.69886966;17.47589404
2.852;-15.96585299;17.47589404
3;-15.24011795;17.83013514
3.151;-14.49967206;17.47589404
3.302;-13.71429706;19.97245033
3.452;-12.93169601;17.5924
3.6;-12.20356612;17.83013514
3.751;-11.46312023;17.47589404
3.902;-10.73010357;17.47589404
4.05;-10.00436852;17.83013514
4.201;-9.2115643;19.97245033
4.352;-8.4261893;17.47589404
4.502;-7.695599841;17.5924
4.651;-6.965026563;17.7104698
4.802;-6.174731988;19.97245033
4.952;-5.39213094;17.5924
5.1;-4.664001051;17.83013514
5.251;-3.923555161;17.47589404
5.402;-3.138180161;19.97245033
5.55;-2.361127016;17.83013514
5.701;-1.568322793;19.97245033
5.852;-0.782947793;17.47589404
6.002;0;20.1056
6.15;0.779790111;17.83013514
6.301;1.572594334;19.97245033
6.452;2.357969334;17.47589404
6.6;3.136062712;20.3772973
6.751;3.929928252;17.47589404
6.902;4.715303252;19.97245033
7.052;5.497904301;17.5924
7.201;6.280835912;20.24053691
7.351;7.069022097;17.5924
7.502;7.856840486;19.97245033
0;0;0
0;0;0
