time;position;velocity
0;-45.6576486;20.1056
0.149;-44.82270771;20.24053691
0.3;-43.97935201;19.97245033
0.45;-43.14439263;20.1056
0.598;-42.36460252;17.83013514
0.749;-41.57179829;19.97245033
0.9;-40.73406496;19.97245033
1.048;-39.90465348;20.3772973
1.199;-39.05842961;19.97245033
1.35;-38.22069627;19.97245033
1.5;-37.38573689;20.1056
1.648;-36.60594678;17.83013514
1.799;-35.81314256;19.97245033
1.95;-34.97540922;19.97245033
2.098;-34.14599775;20.3772973
2.249;-33.3521322;17.47589404
2.4;-32.5667572;19.97245033
2.55;-31.73179782;20.1056
2.699;-30.89685693;20.24053691
2.85;-30.10585956;17.47589404
3;-29.3752701;17.5924
3.148;-28.59478188;20.3772973
3.299;-27.80091634;17.47589404
3.449;-27.07032688;17.5924
3.598;-26.3397536;17.7104698
3.749;-25.60181736;17.47589404
3.9;-24.8688007;17.47589404
4.05;-24.19056957;15.0792
4.198;-23.5140999;17.83013514
4.349;-22.82601235;14.97933775
4.5;-22.14535401;17.47589404
4.648;-21.52433564;12.73581081
4.799;-20.94308738;14.97933775
4.949;-20.31686784;15.0792
5.1;-19.73883184;12.48278146
5.249;-19.21871595;12.65033557
5.4;-18.74397697;9.986225166
5.55;-18.27413894;12.566
5.698;-17.8064045;10.18864865
5.849;-17.38329256;9.986225166
6;-16.9644259;9.986225166
6.148;-16.54972016;10.18864865
6.299;-16.12660822;9.986225166
6.449;-15.6567702;12.566
6.6;-15.18379992;9.986225166
6.748;-14.82145251;7.641486486
6.899;-14.45176023;9.986225166
7.05;-14.03289356;9.986225166
7.198;-13.61818782;10.18864865
7.349;-13.19507588;9.986225166
7.499;-12.77759619;10.0528
7.65;-12.3573333;9.986225166
7.799;-11.94124059;10.12026846
7.949;-11.52096833;10.0528
8.1;-11.15306377;7.489668874
8.248;-10.78967613;10.18864865
8.399;-10.3665642;9.986225166
8.55;-9.947697531;9.986225166
8.698;-9.532991791;10.18864865
8.849;-9.109879854;9.986225166
8.999;-8.692400163;10.0528
9.15;-8.272137275;9.986225166
9.298;-7.909789868;7.641486486
9.449;-7.540097582;9.986225166
9.6;-7.121230916;9.986225166
9.748;-6.706525176;10.18864865
9.899;-6.283413239;9.986225166
10.05;-5.864546573;9.986225166
10.198;-5.449840833;10.18864865
10.349;-5.026728896;9.986225166
10.499;-4.609249205;10.0528
10.65;-4.188986316;9.986225166
10.798;-3.774280577;10.18864865
10.949;-3.35116864;9.986225166
11.1;-2.932301973;9.986225166
11.248;-2.517596234;10.18864865
11.399;-2.094484297;9.986225166
11.55;-1.67561763;9.986225166
11.697;-1.262298866;10.25795918
11.848;-0.837733333;9.986225166
11.999;-0.418866667;9.986225166
12.15;0;9.986225166
0;0;0
0;0;0
