time;position;velocity
0;-56.85381532;27.46211921
0.148;-55.76573286;25.47162162
0.299;-54.65559469;27.46211921
0.45;-53.50371136;27.46211921
0.601;-52.35182802;27.46211921
0.748;-51.26755976;25.64489796
0.9;-50.1502258;27.28144737
1.05;-49.00592064;27.6452
1.198;-47.91407487;25.47162162
1.349;-46.80393669;27.46211921
1.5;-45.65205336;27.46211921
1.65;-44.50398421;27.6452
1.799;-43.35594049;27.83073826
1.95;-42.19632639;27.46211921
2.1;-41.10061558;25.132
2.248;-40.00807169;28.01878378
2.399;-38.84451386;27.46211921
2.55;-37.69263053;27.46211921
2.698;-36.60454808;25.47162162
2.849;-35.4944099;27.46211921
3;-34.34252657;27.46211921
3.15;-33.24681575;25.132
3.298;-32.20663019;25.47162162
3.45;-31.09295429;27.28144737
3.6;-30.00100747;25.132
3.748;-28.96082192;25.47162162
3.899;-27.90304208;24.96556291
4.05;-26.80351708;27.46211921
4.2;-25.70780626;25.132
4.349;-24.66413015;25.30067114
4.5;-23.60993552;24.96556291
4.65;-22.56623629;25.132
4.798;-21.52605073;25.47162162
4.949;-20.46827089;24.96556291
5.1;-19.42110422;24.96556291
5.248;-18.38433988;25.47162162
5.399;-17.32656003;24.96556291
5.55;-16.27939337;24.96556291
5.7;-15.23569414;25.132
5.848;-14.24786692;22.92445946
6;-13.18796444;27.28144737
6.15;-12.09601762;25.132
6.298;-11.1081904;22.92445946
6.449;-10.05147187;27.46211921
6.6;-8.951946873;24.96556291
6.75;-7.960605979;22.6188
6.899;-6.968939145;25.30067114
7.05;-5.914744515;24.96556291
7.2;-4.871045287;25.132
7.348;-3.883218065;22.92445946
7.499;-2.878857874;24.96556291
7.647;-1.894451858;22.92445946
7.798;-0.94245;22.46900662
7.949;0;22.46900662
0;0;0
0;0;0
