time;position;velocity
0;-29.06258291;19.97245033
0.148;-28.23317143;20.3772973
0.299;-27.43930589;17.47589404
0.45;-26.65393089;19.97245033
0.6;-25.81897151;20.1056
0.749;-24.98403062;20.24053691
0.9;-24.19303325;17.47589404
1.05;-23.46244379;17.5924
1.198;-22.68195556;20.3772973
1.349;-21.88809002;17.47589404
1.499;-21.15750057;17.5924
1.648;-20.42692729;17.7104698
1.799;-19.68899105;17.47589404
1.95;-18.95597438;17.47589404
2.1;-18.27774325;15.0792
2.248;-17.60127359;17.83013514
2.399;-16.91318603;14.97933775
2.55;-16.2325277;17.47589404
2.698;-15.61150932;12.73581081
2.849;-15.03026107;14.97933775
2.999;-14.40404153;15.0792
3.15;-13.82600553;12.48278146
3.299;-13.30588963;12.65033557
3.45;-12.83115065;9.986225166
3.6;-12.36131263;12.566
3.748;-11.89357818;10.18864865
3.899;-11.47046625;9.986225166
4.05;-11.05159958;9.986225166
4.198;-10.63689384;10.18864865
4.349;-10.2137819;9.986225166
4.499;-9.74394388;12.566
4.65;-9.2709736;9.986225166
4.798;-8.9086262;7.641486486
4.949;-8.53893391;9.986225166
5.1;-8.120067243;9.986225166
5.248;-7.705361503;10.18864865
5.399;-7.282249566;9.986225166
5.549;-6.864769875;10.0528
5.7;-6.444506986;9.986225166
5.849;-6.028414271;10.12026846
5.999;-5.608142012;10.0528
6.15;-5.240237456;7.489668874
6.298;-4.876849818;10.18864865
6.449;-4.453737881;9.986225166
6.6;-4.034871215;9.986225166
6.748;-3.620165475;10.18864865
6.899;-3.197053538;9.986225166
7.049;-2.779573847;10.0528
7.2;-2.359310958;9.986225166
7.348;-1.996963552;7.641486486
7.499;-1.627271266;9.986225166
7.65;-1.208404599;9.986225166
7.798;-0.79369886;10.18864865
7.949;-0.370586923;9.986225166
8.1;0.048279744;9.986225166
8.248;0.462985483;10.18864865
8.399;0.88609742;9.986225166
8.549;1.303577111;10.0528
8.7;1.72384;9.986225166
8.848;2.138545739;10.18864865
8.999;2.561657676;9.986225166
9.15;2.980524343;9.986225166
9.298;3.395230083;10.18864865
9.449;3.81834202;9.986225166
9.6;4.237208686;9.986225166
9.747;4.65052745;10.25795918
9.898;5.075092983;9.986225166
10.049;5.49395965;9.986225166
10.2;5.912826316;9.986225166
0;0;0
0;0;0
