trial, vi, pi, pit, pft, vf, pf, model
30kmh_20deltaV_10Si_5.5Sf,8.33,30,10,5.5,2.77,-5,ASD030
30kmh_30deltaV_15Si_5.5Sf,8.33,30,15,5.5,0,-5,AST
20kmh_0deltaV,5.55,35,34,33,5.55,-5,CNST
30kmh_0deltaV,8.33,25,24,23,8.33,-5,CNST
