time;position;velocity
0;-28.15937498;27.83073826
0.151;-26.99976089;27.46211921
0.301;-25.90405007;25.132
0.449;-24.86386451;25.47162162
0.6;-23.75372634;27.46211921
0.75;-22.65801552;25.132
0.899;-21.61433941;25.30067114
1.05;-20.50778645;27.46211921
1.2;-19.41207563;25.132
1.351;-18.36141841;24.96556291
1.499;-17.37701239;22.92445946
1.65;-16.3726522;24.96556291
1.801;-15.37784387;22.46900662
1.949;-14.44475595;22.92445946
2.1;-13.54511243;19.97245033
2.25;-12.71015305;20.1056
2.401;-11.86962727;19.97245033
2.55;-11.03744184;20.24053691
2.7;-10.24925565;17.5924
2.851;-9.5137956;17.47589404
2.999;-8.84041889;15.28297297
3.15;-8.205750981;14.97933775
3.3;-7.579531444;15.0792
3.449;-7.005684111;12.65033557
3.6;-6.478586796;12.48278146
3.75;-5.956737182;12.566
3.901;-5.536125238;7.489668874
4.049;-5.1727376;10.18864865
4.2;-4.801983996;7.489668874
4.351;-4.540192329;4.993112583
4.499;-4.33283946;5.094324324
4.65;-4.121283491;4.993112583
4.8;-3.964901979;2.5132
4.948;-3.860883423;2.547162162
5.1;-3.80711;0
0;0;0
0;0;0
