time;position;velocity
0;-33.62857148;27.83073826
0.151;-32.46895738;27.46211921
0.298;-31.33233078;28.20938776
0.449;-30.11241723;29.9586755
0.6;-28.90817557;27.46211921
0.748;-27.76773478;28.01878378
0.899;-26.60417696;27.46211921
1.05;-25.39993529;29.9586755
1.2;-24.19985455;27.6452
1.351;-23.0441316;27.46211921
1.499;-21.90369082;28.01878378
1.651;-20.7362415;27.28144737
1.798;-19.65566195;25.64489796
1.949;-18.54188978;27.46211921
2.1;-17.39000645;27.46211921
2.25;-16.2419373;27.6452
2.401;-15.08621435;27.46211921
2.55;-13.99431772;25.30067114
2.7;-12.89127874;27.6452
2.848;-11.74707463;28.01878378
2.999;-10.5835168;27.46211921
3.15;-9.4839918;24.96556291
3.298;-8.39486912;28.01878378
3.449;-7.231311291;27.46211921
3.6;-6.131786291;24.96556291
3.75;-5.03572873;27.6452
3.901;-3.880005786;27.46211921
4.049;-2.739565002;28.01878378
4.2;-1.628365509;24.96556291
4.348;-0.539242827;28.01878378
4.499;0.624315;27.46211921
4.65;1.72384;24.96556291
4.8;2.819897561;27.6452
4.949;3.967941283;27.83073826
5.1;5.075197043;24.96556291
5.25;6.171254604;27.6452
5.401;7.326977549;27.46211921
5.549;8.415059999;25.47162162
5.7;9.525198175;27.46211921
5.848;10.61328063;25.47162162
5.999;11.7234188;27.46211921
6.15;12.87530213;27.46211921
0;0;0
0;0;0
