time;position;velocity
0;-28.4069194;17.47589404
0.151;-27.72626106;14.97933775
0.299;-27.10420245;15.28297297
0.45;-26.41717622;17.47589404
0.601;-25.73651788;14.97933775
0.751;-25.11029835;15.0792
0.899;-24.43382868;17.83013514
1.05;-23.74574112;14.97933775
1.198;-23.12368251;15.28297297
1.349;-22.48901461;14.97933775
1.5;-21.86071461;14.97933775
1.651;-21.23241461;14.97933775
1.801;-20.60619507;15.0792
1.95;-19.9799894;15.18040268
2.101;-19.34747263;14.97933775
2.251;-18.72125309;15.0792
2.399;-18.09714176;15.28297297
2.55;-17.46247385;14.97933775
2.7;-16.88861265;12.566
2.849;-16.31441626;15.18040268
3;-15.73425781;12.48278146
3.151;-15.21067448;12.48278146
3.301;-14.68882487;12.566
3.449;-14.22109042;10.18864865
3.6;-13.74562015;12.48278146
3.751;-13.27439515;9.986225166
3.899;-12.91204775;7.641486486
4.05;-12.54235546;9.986225166
4.2;-12.1772341;7.5396
4.351;-11.86203694;7.489668874
4.5;-11.60232573;5.060134228
4.651;-11.33912847;7.489668874
4.801;-11.0260187;7.5396
4.949;-10.76632137;5.094324324
5.1;-10.50240707;7.489668874
5.25;-10.24165563;5.0264
5.399;-10.03292041;5.060134228
5.55;-9.76972315;7.489668874
5.7;-9.50897172;5.0264
5.851;-9.29884027;4.993112583
5.999;-9.03912907;7.641486486
6.15;-8.77415345;4.993112583
6.301;-8.56472012;4.993112583
6.449;-8.305008915;7.641486486
6.6;-8.040033296;4.993112583
6.75;-7.778935117;7.5396
6.901;-7.46373795;7.489668874
7.05;-7.151668414;7.590201342
7.2;-6.836464219;7.5396
7.351;-6.521267052;7.489668874
7.499;-6.210237748;7.641486486
7.65;-5.892903795;7.489668874
7.801;-5.526395462;9.986225166
7.949;-5.164048056;7.641486486
8.1;-4.79435577;9.986225166
8.25;-4.429234412;7.5396
8.401;-4.061678912;9.986225166
8.549;-3.646973172;10.18864865
8.7;-3.223861236;9.986225166
8.851;-2.804994569;9.986225166
8.999;-2.442647163;7.641486486
9.15;-2.072954877;9.986225166
9.3;-1.655475186;10.0528
9.448;-1.239400963;10.18864865
9.6;-0.814873936;9.920526316
9.75;-0.398762972;10.0528
9.901;0.021499917;9.986225166
10.049;0.436205657;10.18864865
10.2;0.859317594;9.986225166
10.351;1.27818426;9.986225166
10.499;1.69289;10.18864865
10.65;2.063643604;7.489668874
10.8;2.429111705;10.0528
10.948;2.845185927;10.18864865
11.099;3.268297864;9.986225166
11.25;3.687164531;9.986225166
11.401;4.053672864;7.489668874
11.549;4.417060502;10.18864865
11.7;4.840172439;9.986225166
11.851;5.206680773;7.489668874
11.998;5.569028179;10.25795918
0;0;0
0;0;0
