trial, vi, pi, pit, pft, vf, pf, model
30kmh_20deltaV_10Si_5.5Sf,8.33,50.8,10,5.5,2.77,-5,ASD030
30kmh_30deltaV_15Si_5.5Sf,8.33,50.8,15,5.5,0,-5,AST
20kmh_0deltaV,5.55,48.9,47,46,5.55,-5,CNST
30kmh_0deltaV,8.33,52.8,51,50,8.33,-5,CNST
