time ;position;velocity
0;-28.59430044;20.1056
0.148;-27.762152;20.3772973
0.3;-26.91309795;19.84105263
0.45;-26.08087602;20.1056
0.601;-25.24035024;19.97245033
0.749;-24.41093876;20.3772973
0.9;-23.56471488;19.97245033
1.05;-22.7297555;20.1056
1.199;-21.94717295;17.7104698
1.35;-21.15687837;19.97245033
1.5;-20.32191899;20.1056
1.648;-19.48977055;20.3772973
1.799;-18.64354667;19.97245033
1.95;-17.80581334;19.97245033
2.101;-17.02043834;17.47589404
2.249;-16.24234496;20.3772973
2.4;-15.44847942;17.47589404
2.55;-14.66553163;20.1056
2.698;-13.88574152;17.83013514
2.85;-13.14281922;17.36092105
3;-12.3622667;20.1056
3.148;-11.58247659;17.83013514
3.299;-10.89438903;14.97933775
3.45;-10.2137307;17.47589404
3.6;-9.48314124;17.5924
3.749;-8.80492629;15.18040268
3.9;-8.224767849;12.48278146
4.05;-7.650559902;15.0792
4.198;-7.078806902;12.73581081
4.349;-6.54991698;12.48278146
4.5;-6.07869198;9.986225166
4.648;-5.663986241;10.18864865
4.799;-5.293232637;7.489668874
4.95;-4.979082637;7.489668874
5.1;-4.665972869;7.5396
5.248;-4.406275536;5.094324324
5.4;-4.194012022;4.960263158
5.55;-4.038314873;2.5132
5.698;-3.934296318;2.547162162
5.849;-3.828518333;2.496556291
6;-3.77616;0
0;0;0
0;0;0
