time;position;velocity
0;-23.0441316;27.46211921
0.148;-21.90369082;28.01878378
0.3;-20.7362415;27.28144737
0.447;-19.65566195;25.64489796
0.598;-18.54188978;27.46211921
0.749;-17.39000645;27.46211921
0.899;-16.2419373;27.6452
1.05;-15.08621435;27.46211921
1.199;-13.99431772;25.30067114
1.349;-12.89127874;27.6452
1.497;-11.74707463;28.01878378
1.648;-10.5835168;27.46211921
1.799;-9.4839918;24.96556291
1.947;-8.39486912;28.01878378
2.098;-7.231311291;27.46211921
2.249;-6.131786291;24.96556291
2.399;-5.03572873;27.6452
2.55;-3.880005786;27.46211921
2.698;-2.739565002;28.01878378
2.849;-1.628365509;24.96556291
2.997;-0.539242827;28.01878378
3.148;0.624315;27.46211921
3.299;1.72384;24.96556291
3.449;2.819897561;27.6452
3.598;3.967941283;27.83073826
3.749;5.075197043;24.96556291
3.899;6.171254604;27.6452
4.05;7.326977549;27.46211921
4.198;8.415059999;25.47162162
4.349;9.525198175;27.46211921
4.497;10.61328063;25.47162162
4.648;11.7234188;27.46211921
4.799;12.87530213;27.46211921
0;0;0
0;0;0
