time;position;velocity
0;-28.4093317;17.5924
0.148;-27.73356015;15.28297297
0.299;-27.04653391;17.47589404
0.45;-26.31351724;17.47589404
0.598;-25.64014053;15.28297297
0.749;-24.95311429;17.47589404
0.9;-24.27245596;14.97933775
1.05;-23.59387809;17.5924
1.198;-22.91810653;15.28297297
1.349;-22.23108029;17.47589404
1.5;-21.49806363;17.47589404
1.648;-20.82468692;15.28297297
1.799;-20.13766068;17.47589404
1.95;-19.45700234;14.97933775
2.1;-18.77842447;17.5924
2.249;-18.10020953;15.18040268
2.4;-17.41533442;17.47589404
2.55;-16.68474496;17.5924
2.698;-16.0089734;15.28297297
2.849;-15.32194716;17.47589404
3;-14.64128883;14.97933775
3.148;-13.96687189;17.83013514
3.299;-13.226426;17.47589404
3.449;-12.54819487;15.0792
3.6;-11.86544221;17.47589404
3.748;-11.19206549;15.28297297
3.899;-10.50503926;17.47589404
4.05;-9.77202259;17.47589404
4.198;-9.09864588;15.28297297
4.349;-8.41161964;17.47589404
4.5;-7.730961307;14.97933775
4.65;-7.052383437;17.5924
4.799;-6.426526826;12.65033557
4.949;-5.796469835;17.5924
5.1;-5.113368112;14.97933775
5.248;-4.43895117;17.83013514
5.399;-3.750863614;14.97933775
5.55;-3.07020528;17.47589404
5.698;-2.396828569;15.28297297
5.849;-1.709802331;17.47589404
6;-1.029143997;14.97933775
6.15;-0.350566128;17.5924
6.298;0.325205428;15.28297297
6.449;1.012231667;17.47589404
6.6;1.69289;14.97933775
6.748;2.367306943;17.83013514
6.899;3.055394499;14.97933775
7.05;3.736052832;17.47589404
7.197;4.407002336;15.38693878
7.349;5.04598771;14.88078947
7.5;5.724579267;17.47589404
7.65;6.402810393;15.0792
7.798;7.026921726;15.28297297
7.949;7.713947965;17.47589404
8.1;8.394606298;14.97933775
0;0;0
0;0;0
