time;position;velocity
0;-43.13253453;19.97245033
0.151;-42.2948012;19.97245033
0.299;-41.51774806;17.83013514
0.45;-40.72494383;19.97245033
0.601;-39.8872105;19.97245033
0.751;-39.05225112;20.1056
0.899;-38.27246101;17.83013514
1.05;-37.47965678;19.97245033
1.202;-36.6391495;19.84105263
1.349;-35.86755301;17.95142857
1.5;-35.07220499;19.97245033
1.651;-34.23447166;19.97245033
1.801;-33.45187061;17.5924
1.952;-32.66405222;19.97245033
2.101;-31.88422512;17.7104698
2.251;-31.09639034;20.1056
2.399;-30.31660023;17.83013514
2.55;-29.57615434;17.47589404
2.701;-28.79077934;19.97245033
2.849;-28.01372619;17.83013514
3;-27.22092197;19.97245033
3.151;-26.43554697;17.47589404
3.301;-25.70495751;17.5924
3.452;-24.91713912;19.97245033
3.6;-24.14008597;17.83013514
3.751;-23.39964008;17.47589404
3.899;-22.67390504;17.83013514
4.05;-21.88110082;19.97245033
4.201;-21.09572582;17.47589404
4.351;-20.36513636;17.5924
4.5;-19.63456308;17.7104698
4.651;-18.8442685;19.97245033
4.801;-18.06166746;17.5924
4.949;-17.3858959;15.28297297
5.1;-16.69886966;17.47589404
5.251;-15.96585299;17.47589404
5.399;-15.24011795;17.83013514
5.55;-14.49967206;17.47589404
5.701;-13.71429706;19.97245033
5.851;-12.93169601;17.5924
5.999;-12.20356612;17.83013514
6.15;-11.46312023;17.47589404
6.301;-10.73010357;17.47589404
6.449;-10.00436852;17.83013514
6.6;-9.2115643;19.97245033
6.751;-8.4261893;17.47589404
6.901;-7.695599841;17.5924
7.05;-6.965026563;17.7104698
7.201;-6.174731988;19.97245033
7.351;-5.39213094;17.5924
7.499;-4.664001051;17.83013514
7.65;-3.923555161;17.47589404
7.801;-3.138180161;19.97245033
7.949;-2.361127016;17.83013514
8.1;-1.568322793;19.97245033
8.251;-0.782947793;17.47589404
8.401;0;20.1056
8.549;0.779790111;17.83013514
8.7;1.572594334;19.97245033
8.851;2.357969334;17.47589404
8.999;3.136062712;20.3772973
9.15;3.929928252;17.47589404
9.301;4.715303252;19.97245033
9.451;5.497904301;17.5924
9.6;6.280835912;20.24053691
9.75;7.069022097;17.5924
9.901;7.856840486;19.97245033
0;0;0
0;0;0
