time;position;velocity
0;-22.91810653;15.28297297
0.151;-22.23108029;17.47589404
0.302;-21.49806363;17.47589404
0.45;-20.82468692;15.28297297
0.601;-20.13766068;17.47589404
0.752;-19.45700234;14.97933775
0.902;-18.77842447;17.5924
1.051;-18.10020953;15.18040268
1.202;-17.41533442;17.47589404
1.352;-16.68474496;17.5924
1.5;-16.0089734;15.28297297
1.651;-15.32194716;17.47589404
1.802;-14.64128883;14.97933775
1.95;-13.96687189;17.83013514
2.101;-13.226426;17.47589404
2.251;-12.54819487;15.0792
2.402;-11.86544221;17.47589404
2.55;-11.19206549;15.28297297
2.701;-10.50503926;17.47589404
2.852;-9.77202259;17.47589404
3;-9.09864588;15.28297297
3.151;-8.41161964;17.47589404
3.302;-7.730961307;14.97933775
3.452;-7.052383437;17.5924
3.601;-6.426526826;12.65033557
3.751;-5.796469835;17.5924
3.902;-5.113368112;14.97933775
4.05;-4.43895117;17.83013514
4.201;-3.750863614;14.97933775
4.352;-3.07020528;17.47589404
4.5;-2.396828569;15.28297297
4.651;-1.709802331;17.47589404
4.802;-1.029143997;14.97933775
4.952;-0.350566128;17.5924
5.1;0.325205428;15.28297297
5.251;1.012231667;17.47589404
5.402;1.69289;14.97933775
5.55;2.367306943;17.83013514
5.701;3.055394499;14.97933775
5.852;3.736052832;17.47589404
5.999;4.407002336;15.38693878
6.151;5.04598771;14.88078947
6.302;5.724579267;17.47589404
6.452;6.402810393;15.0792
6.6;7.026921726;15.28297297
6.751;7.713947965;17.47589404
6.902;8.394606298;14.97933775
0;0;0
0;0;0
