time;position;velocity
0;-28.26370981;28.01878378
0.151;-27.10015199;27.46211921
0.302;-25.94826865;27.46211921
0.45;-24.8601862;25.47162162
0.601;-23.75004803;27.46211921
0.752;-22.59816469;27.46211921
0.902;-21.50245388;25.132
1.05;-20.46226832;25.47162162
1.202;-19.34859242;27.28144737
1.352;-18.2566456;25.132
1.5;-17.21646005;25.47162162
1.651;-16.1586802;24.96556291
1.802;-15.0591552;27.46211921
1.952;-13.96344439;25.132
2.101;-12.91976827;25.30067114
2.252;-11.86557364;24.96556291
2.402;-10.82187442;25.132
2.55;-9.78168886;25.47162162
2.701;-8.72390902;24.96556291
2.852;-7.676742352;24.96556291
3;-6.639978003;25.47162162
3.151;-5.582198161;24.96556291
3.302;-4.535031494;24.96556291
3.452;-3.491332267;25.132
3.6;-2.503505045;22.92445946
3.752;-1.443602567;27.28144737
3.902;-0.351655747;25.132
4.05;0.636171475;22.92445946
4.201;1.69289;27.46211921
4.352;2.792415;24.96556291
4.502;3.783755894;22.6188
4.651;4.775422727;25.30067114
4.802;5.829617358;24.96556291
4.952;6.873316586;25.132
5.1;7.861143808;22.92445946
5.251;8.865503999;24.96556291
5.399;9.849910015;22.92445946
5.55;10.80191187;22.46900662
5.701;11.74436187;22.46900662
0;0;0
0;0;0
