time;position;velocity
0;-33.17344544;14.97933775
0.148;-32.49902849;17.83013514
0.299;-31.81094094;14.97933775
0.45;-31.1302826;17.47589404
0.6;-30.45205148;15.0792
0.749;-29.77348748;17.7104698
0.9;-29.08790957;14.97933775
1.05;-28.4093317;17.5924
1.198;-27.73356015;15.28297297
1.349;-27.04653391;17.47589404
1.5;-26.31351724;17.47589404
1.648;-25.64014053;15.28297297
1.799;-24.95311429;17.47589404
1.95;-24.27245596;14.97933775
2.1;-23.59387809;17.5924
2.248;-22.91810653;15.28297297
2.399;-22.23108029;17.47589404
2.55;-21.49806363;17.47589404
2.698;-20.82468692;15.28297297
2.849;-20.13766068;17.47589404
3;-19.45700234;14.97933775
3.15;-18.77842447;17.5924
3.299;-18.10020953;15.18040268
3.45;-17.41533442;17.47589404
3.6;-16.68474496;17.5924
3.748;-16.0089734;15.28297297
3.899;-15.32194716;17.47589404
4.05;-14.64128883;14.97933775
4.198;-13.96687189;17.83013514
4.349;-13.226426;17.47589404
4.499;-12.54819487;15.0792
4.65;-11.86544221;17.47589404
4.798;-11.19206549;15.28297297
4.949;-10.50503926;17.47589404
5.1;-9.77202259;17.47589404
5.248;-9.09864588;15.28297297
5.399;-8.41161964;17.47589404
5.55;-7.730961307;14.97933775
5.7;-7.052383437;17.5924
5.849;-6.426526826;12.65033557
5.999;-5.796469835;17.5924
6.15;-5.113368112;14.97933775
6.298;-4.43895117;17.83013514
6.449;-3.750863614;14.97933775
6.6;-3.07020528;17.47589404
6.748;-2.396828569;15.28297297
6.899;-1.709802331;17.47589404
7.05;-1.029143997;14.97933775
7.2;-0.350566128;17.5924
7.348;0.325205428;15.28297297
7.499;1.012231667;17.47589404
7.65;1.69289;14.97933775
7.798;2.367306943;17.83013514
7.949;3.055394499;14.97933775
8.1;3.736052832;17.47589404
8.247;4.407002336;15.38693878
8.399;5.04598771;14.88078947
8.55;5.724579267;17.47589404
8.7;6.402810393;15.0792
8.848;7.026921726;15.28297297
8.999;7.713947965;17.47589404
9.15;8.394606298;14.97933775
0;0;0
0;0;0
