time;position;velocity
0;-28.90817557;27.46211921
0.148;-27.76773478;28.01878378
0.299;-26.60417696;27.46211921
0.45;-25.39993529;29.9586755
0.6;-24.19985455;27.6452
0.751;-23.0441316;27.46211921
0.899;-21.90369082;28.01878378
1.051;-20.7362415;27.28144737
1.198;-19.65566195;25.64489796
1.349;-18.54188978;27.46211921
1.5;-17.39000645;27.46211921
1.65;-16.2419373;27.6452
1.801;-15.08621435;27.46211921
1.95;-13.99431772;25.30067114
2.1;-12.89127874;27.6452
2.248;-11.74707463;28.01878378
2.399;-10.5835168;27.46211921
2.55;-9.4839918;24.96556291
2.698;-8.39486912;28.01878378
2.849;-7.231311291;27.46211921
3;-6.131786291;24.96556291
3.15;-5.03572873;27.6452
3.301;-3.880005786;27.46211921
3.449;-2.739565002;28.01878378
3.6;-1.628365509;24.96556291
3.748;-0.539242827;28.01878378
3.899;0.624315;27.46211921
4.05;1.72384;24.96556291
4.2;2.819897561;27.6452
4.349;3.967941283;27.83073826
4.5;5.075197043;24.96556291
4.65;6.171254604;27.6452
4.801;7.326977549;27.46211921
4.949;8.415059999;25.47162162
5.1;9.525198175;27.46211921
5.248;10.61328063;25.47162162
5.399;11.7234188;27.46211921
5.55;12.87530213;27.46211921
0;0;0
0;0;0
