time;position;velocity
0;-28.40986193;24.96556291
0.148;-27.37309758;25.47162162
0.299;-26.31531774;24.96556291
0.45;-25.26815107;24.96556291
0.6;-24.22445185;25.132
0.748;-23.23662462;22.92445946
0.9;-22.22908048;24.80131579
1.05;-21.18880307;25.132
1.201;-20.19050418;22.46900662
1.349;-19.25741626;22.92445946
1.5;-18.30541441;22.46900662
1.65;-17.41844343;20.1056
1.799;-16.53114421;22.77060403
1.95;-15.63472738;19.97245033
2.1;-14.85212633;17.5924
2.248;-14.12399644;17.83013514
2.399;-13.38355055;17.47589404
2.55;-12.65053388;17.47589404
2.701;-11.96987555;14.97933775
2.849;-11.34781694;15.28297297
3;-10.76550737;12.48278146
3.15;-10.24365776;12.566
3.298;-9.72356498;12.73581081
3.45;-9.24526453;9.920526316
3.6;-8.82915356;10.0528
3.748;-8.46543767;7.641486486
3.899;-8.095745388;9.986225166
4.05;-7.729237054;7.489668874
4.201;-7.415087054;7.489668874
4.349;-7.156416083;5.094324324
4.5;-6.892501781;7.489668874
4.65;-6.631750346;5.0264
4.798;-6.423713235;5.094324324
4.949;-6.159798934;7.489668874
5.1;-5.898007267;4.993112583
5.248;-5.690654397;5.094324324
5.399;-5.479098429;4.993112583
5.55;-5.217306762;7.489668874
5.7;-4.956555327;5.0264
5.848;-4.748518216;5.094324324
6;-4.536254702;4.960263158
6.15;-4.275840887;7.5396
6.298;-4.016143553;5.094324324
6.449;-3.752229252;7.489668874
6.6;-3.490437585;4.993112583
6.75;-3.229339406;7.5396
6.899;-2.968594906;5.060134228
7.05;-2.705397647;7.489668874
7.2;-2.444646212;5.0264
7.348;-2.184250767;7.641486486
7.499;-1.919275148;4.993112583
7.65;-1.657483481;7.489668874
7.798;-1.346454177;7.641486486
7.949;-1.029120224;7.489668874
8.1;-0.767328557;4.993112583
8.25;-0.506230378;7.5396
8.399;-0.193127545;7.590201342
8.55;0.123130844;7.489668874
8.7;0.436240612;7.5396
8.848;0.748296279;7.641486486
8.999;1.065630232;7.489668874
9.15;1.379780232;7.489668874
9.3;1.69289;7.5396
9.449;2.005992833;7.590201342
9.6;2.374609556;9.986225166
9.747;2.735569986;7.693469388
9.898;3.053994136;7.489668874
10.049;3.368144136;7.489668874
10.2;3.734652469;9.986225166
10.348;4.096999876;7.641486486
10.499;4.414333828;7.489668874
10.65;4.780842162;9.986225166
10.8;5.145963519;7.5396
10.949;5.511424686;10.12026846
11.1;5.933102538;9.986225166
11.247;6.294062969;7.693469388
0;0;0
0;0;0
