time;position;velocity
0;0.044100075;0.0
0.149;0.044100075;0.0
0.3;0.044100075;0.0
0.45;0.044100075;0.0
0.598;0.044100075;0.0
0.749;0.044100075;0.0
0.897;0.044100075;0.0
1.048;0.044100075;0.0
1.199;0.044100075;0.0
1.35;0.044100075;0.0
1.5;0.044100075;0.0
1.648;0.044100075;0.0
1.8;0.044100075;0.0
1.947;0.044100075;0.0
2.098;0.044100075;0.0
2.249;0.044100075;0.0
2.399;0.044100075;0.0
2.55;0.044100075;0.0
2.699;0.044100075;0.0
2.85;0.044100075;0.0
3;0.044100075;0.0
3.148;0.044100075;0.0
3.299;0.044100075;0.0
3.447;0.044100075;0.0
3.598;0.044100075;0.0
3.749;0.044100075;0.0
3.899;0.044100075;0.0
4.05;0.044100075;0.0
4.198;0.044100075;0.0
4.35;0.044100075;0.0
4.5;0.044100075;0.0
4.648;0.044100075;0.0
4.799;0.044100075;0.0
4.949;0.044100075;0.0
5.1;0.044100075;0.0
5.249;0.044100075;0.0
5.399;0.044100075;0.0
5.55;0.044100075;0.0
5.698;0.044100075;0.0
5.849;0.044100075;0.0
5.997;0.044100075;0.0
6.148;0.044100075;0.0
6.299;0.044100075;0.0
6.449;0.044100075;0.0
6.6;0.044100075;0.0
6.748;0.044100075;0.0
6.899;0.044100075;0.0
7.05;0.044100075;0.0
7.198;0.044100075;0.0
7.349;0.044100075;0.0
7.499;0.044100075;0.0
7.648;0.044100075;0.0
7.799;0.044100075;0.0
7.949;0.044100075;0.0
8.1;0.044100075;0.0
8.248;0.044100075;0.0
8.399;0.044100075;0.0
8.55;0.044100075;0.0
8.698;0.044100075;0.0
8.849;0.044100075;0.0
8.999;0.044100075;0.0
9.147;0.044100075;0.0
9.298;0.044100075;0.0
0;0;0
0;0;0
