time;position;velocity
0;-28.25506507;17.47589404
0.151;-27.5220484;17.47589404
0.299;-26.79631335;17.83013514
0.45;-26.05586747;17.47589404
0.6;-25.32527801;17.5924
0.749;-24.64706306;15.18040268
0.9;-23.96218795;17.47589404
1.05;-23.28395682;15.0792
1.198;-22.60748716;17.83013514
1.349;-21.86704127;17.47589404
1.5;-21.18638293;14.97933775
1.651;-20.5057246;17.47589404
1.799;-19.83234789;15.28297297
1.95;-19.19767998;14.97933775
2.1;-18.51910211;17.5924
2.248;-17.84333056;15.28297297
2.399;-17.20866265;14.97933775
2.55;-16.58036265;14.97933775
2.698;-15.90594571;17.83013514
2.849;-15.21785815;14.97933775
3;-14.58955815;14.97933775
3.15;-13.96333862;15.0792
3.299;-13.33713295;15.18040268
3.45;-12.75697451;12.48278146
3.6;-12.18276656;15.0792
3.748;-11.61101356;12.73581081
3.899;-11.08212364;12.48278146
4.05;-10.50618197;14.97933775
4.198;-9.98884003;10.18864865
4.349;-9.51336976;12.48278146
4.5;-9.04214476;9.986225166
4.65;-8.62466507;10.0528
4.798;-8.208590846;10.18864865
4.949;-7.785478909;9.986225166
5.1;-7.418970575;7.489668874
5.248;-7.055582938;10.18864865
5.399;-6.684829334;7.489668874
5.55;-6.370679334;7.489668874
5.7;-6.057569566;7.5396
5.849;-5.744466732;7.590201342
6;-5.480566676;4.993112583
6.15;-5.219468498;7.5396
6.298;-4.959771164;5.094324324
6.449;-4.748215196;4.993112583
6.6;-4.538781863;4.993112583
6.748;-4.331428993;5.094324324
6.899;-4.119873024;4.993112583
7.05;-3.962798024;2.496556291
7.197;-3.911826667;0
7.348;-3.859468333;2.496556291
7.499;-3.80711;0
0;0;0
0;0;0
