
____________________________________________________________________________________________________________________________________________________________________________________________________________________________________________________________________________________________________________________
11/06/2019
Start:10:20:33
TrialName;TrialNumber;CarPositionX;CarPositionY;CarPositionZ;CarVelocity(km/h);KeyPressed;CarType;Sound;ResponseTime(ms);Pause
condicao13_2Di30m_gas;1;3.7761600017547607;0.0;0.2935143709182739;0.0;None;0;True;6484.987;0
____________________________________________________________________________________________________________________________________________________________________________________________________________________________________________________________________________________________________________________
11/06/2019
Start:10:20:42
TrialName;TrialNumber;CarPositionX;CarPositionY;CarPositionZ;CarVelocity(km/h);KeyPressed;CarType;Sound;ResponseTime(ms);Pause
condicao3_2Di25m_gas;2;-12.8753023147583;0.0;1.3804243803024292;27.46211921;None;0;True;5152.755;0
____________________________________________________________________________________________________________________________________________________________________________________________________________________________________________________________________________________________________________________
11/06/2019
Start:10:20:52
TrialName;TrialNumber;CarPositionX;CarPositionY;CarPositionZ;CarVelocity(km/h);KeyPressed;CarType;Sound;ResponseTime(ms);Pause
condicao3_2Di35m_gas;3;-12.8753023147583;0.0;1.3804243803024292;27.46211921;None;0;True;6647.733;0
____________________________________________________________________________________________________________________________________________________________________________________________________________________________________________________________________________________________________________________
11/06/2019
Start:10:21:05
TrialName;TrialNumber;CarPositionX;CarPositionY;CarPositionZ;CarVelocity(km/h);KeyPressed;CarType;Sound;ResponseTime(ms);Pause
condicao23_1Di30m_gas;4;-6.069825649261475;0.0;0.9362027049064636;12.48278146;None;0;True;10025.527;0
____________________________________________________________________________________________________________________________________________________________________________________________________________________________________________________________________________________________________________________
11/06/2019
Start:10:21:15
TrialName;TrialNumber;CarPositionX;CarPositionY;CarPositionZ;CarVelocity(km/h);KeyPressed;CarType;Sound;ResponseTime(ms);Pause
condicao3_2Di30m_gas;5;-12.8753023147583;0.0;1.3804243803024292;27.46211921;None;0;True;5983.769;0