time;position;velocity
0;-32.75962234;27.6452
0.149;-31.61157861;27.83073826
0.3;-30.45196452;27.46211921
0.45;-29.3562537;25.132
0.598;-28.26370981;28.01878378
0.749;-27.10015199;27.46211921
0.9;-25.94826865;27.46211921
1.048;-24.8601862;25.47162162
1.199;-23.75004803;27.46211921
1.35;-22.59816469;27.46211921
1.5;-21.50245388;25.132
1.648;-20.46226832;25.47162162
1.8;-19.34859242;27.28144737
1.95;-18.2566456;25.132
2.098;-17.21646005;25.47162162
2.249;-16.1586802;24.96556291
2.4;-15.0591552;27.46211921
2.55;-13.96344439;25.132
2.699;-12.91976827;25.30067114
2.85;-11.86557364;24.96556291
3;-10.82187442;25.132
3.148;-9.78168886;25.47162162
3.299;-8.72390902;24.96556291
3.45;-7.676742352;24.96556291
3.598;-6.639978003;25.47162162
3.749;-5.582198161;24.96556291
3.9;-4.535031494;24.96556291
4.05;-3.491332267;25.132
4.198;-2.503505045;22.92445946
4.35;-1.443602567;27.28144737
4.5;-0.351655747;25.132
4.648;0.636171475;22.92445946
4.799;1.69289;27.46211921
4.95;2.792415;24.96556291
5.1;3.783755894;22.6188
5.249;4.775422727;25.30067114
5.4;5.829617358;24.96556291
5.55;6.873316586;25.132
5.698;7.861143808;22.92445946
5.849;8.865503999;24.96556291
5.997;9.849910015;22.92445946
6.148;10.80191187;22.46900662
6.299;11.74436187;22.46900662
0;0;0
0;0;0
