time;position;velocity
0;-50.93458023;24.96556291
0.151;-49.83505523;27.46211921
0.301;-48.68698608;27.6452
0.452;-47.58362147;24.96556291
0.601;-46.49103135;27.83073826
0.751;-45.38764097;25.132
0.902;-44.28462541;27.46211921
1.05;-43.19654296;25.47162162
1.201;-42.13876312;24.96556291
1.351;-41.04270556;27.6452
1.5;-39.94702017;25.30067114
1.651;-38.89282554;24.96556291
1.801;-37.84912631;25.132
1.952;-36.79846909;24.96556291
2.1;-35.76170474;25.47162162
2.251;-34.7039249;24.96556291
2.399;-33.66716055;25.47162162
2.55;-32.60938071;24.96556291
2.701;-31.56221404;24.96556291
2.851;-30.51851481;25.132
2.999;-29.53068759;22.92445946
3.151;-28.52314345;24.80131579
3.301;-27.48286604;25.132
3.452;-26.48456715;22.46900662
3.6;-25.55147923;22.92445946
3.751;-24.59947737;22.46900662
3.901;-23.7125064;20.1056
4.05;-22.82520718;22.77060403
4.201;-21.92879035;19.97245033
4.351;-21.1461893;17.5924
4.499;-20.41805941;17.83013514
4.65;-19.67761352;17.47589404
4.801;-18.94459685;17.47589404
4.952;-18.26393852;14.97933775
5.1;-17.64187991;15.28297297
5.251;-17.05957034;12.48278146
5.401;-16.53772072;12.566
5.549;-16.01762795;12.73581081
5.701;-15.5393275;9.920526316
5.851;-15.12321653;10.0528
5.999;-14.75950064;7.641486486
6.15;-14.38980836;9.986225166
6.301;-14.02330002;7.489668874
6.452;-13.70915002;7.489668874
6.6;-13.45047905;5.094324324
6.751;-13.18656475;7.489668874
6.901;-12.92581332;5.0264
7.049;-12.7177762;5.094324324
7.2;-12.4538619;7.489668874
7.351;-12.19207024;4.993112583
7.499;-11.98471737;5.094324324
7.65;-11.7731614;4.993112583
7.801;-11.51136973;7.489668874
7.951;-11.2506183;5.0264
8.099;-11.04258118;5.094324324
8.251;-10.83031767;4.960263158
8.401;-10.56990386;7.5396
8.549;-10.31020652;5.094324324
8.7;-10.04629222;7.489668874
8.851;-9.784500554;4.993112583
9.001;-9.523402375;7.5396
9.15;-9.262657875;5.060134228
9.301;-8.999460615;7.489668874
9.451;-8.73870918;5.0264
9.599;-8.478313736;7.641486486
9.75;-8.213338117;4.993112583
9.901;-7.95154645;7.489668874
10.049;-7.640517145;7.641486486
10.2;-7.323183193;7.489668874
10.351;-7.061391526;4.993112583
10.501;-6.800293347;7.5396
10.65;-6.487190514;7.590201342
10.801;-6.170932124;7.489668874
10.951;-5.857822356;7.5396
11.099;-5.54576669;7.641486486
11.25;-5.228432737;7.489668874
11.401;-4.914282737;7.489668874
11.551;-4.601172969;7.5396
11.7;-4.288070135;7.590201342
11.851;-3.919453413;9.986225166
11.998;-3.558492982;7.693469388
12.149;-3.240068833;7.489668874
12.3;-2.925918833;7.489668874
12.451;-2.559410499;9.986225166
12.599;-2.197063093;7.641486486
12.75;-1.87972914;7.489668874
12.901;-1.513220807;9.986225166
13.051;-1.148099449;7.5396
13.2;-0.782638283;10.12026846
13.351;-0.36096043;9.986225166
13.498;0;7.693469388
0;0;0
0;0;0
