time;position;velocity
0;-53.29615253;14.97933775
0.148;-52.62173558;17.83013514
0.299;-51.88128969;17.47589404
0.45;-51.20063136;14.97933775
0.6;-50.52205349;17.5924
0.751;-49.78659343;17.47589404
0.9;-49.11078952;15.18040268
1.05;-48.42802279;17.5924
1.198;-47.6998929;17.83013514
1.349;-47.01180535;14.97933775
1.5;-46.33114702;17.47589404
1.648;-45.6577703;15.28297297
1.799;-44.97074407;17.47589404
1.95;-44.29008573;14.97933775
2.1;-43.61150786;17.5924
2.248;-42.93573631;15.28297297
2.399;-42.24871007;17.47589404
2.55;-41.56805173;14.97933775
2.698;-40.89363479;17.83013514
2.849;-40.20554724;14.97933775
3;-39.5248889;17.47589404
3.15;-38.84665778;15.0792
3.299;-38.16809378;17.7104698
3.45;-37.48251587;14.97933775
3.6;-36.803938;17.5924
3.748;-36.12816644;15.28297297
3.899;-35.4411402;17.47589404
4.05;-34.70812354;17.47589404
4.198;-34.03474683;15.28297297
4.349;-33.34772059;17.47589404
4.5;-32.66706225;14.97933775
4.65;-31.98848439;17.5924
4.798;-31.31271283;15.28297297
4.949;-30.62568659;17.47589404
5.1;-29.89266992;17.47589404
5.248;-29.21929321;15.28297297
5.399;-28.53226697;17.47589404
5.55;-27.85160864;14.97933775
5.7;-27.17303077;17.5924
5.849;-26.49481583;15.18040268
6;-25.80994072;17.47589404
6.15;-25.07935126;17.5924
6.298;-24.4035797;15.28297297
6.449;-23.71655346;17.47589404
6.6;-23.03589513;14.97933775
6.748;-22.36147819;17.83013514
6.899;-21.6210323;17.47589404
7.049;-20.94280117;15.0792
7.2;-20.2600485;17.47589404
7.348;-19.58667179;15.28297297
7.499;-18.89964555;17.47589404
7.65;-18.16662889;17.47589404
7.798;-17.49325218;15.28297297
7.949;-16.80622594;17.47589404
8.1;-16.1255676;14.97933775
8.25;-15.44698973;17.5924
8.399;-14.82113312;12.65033557
8.549;-14.19107613;17.5924
8.7;-13.50797441;14.97933775
8.848;-12.83355747;17.83013514
8.999;-12.14546991;14.97933775
9.15;-11.46481158;17.47589404
9.298;-10.79143487;15.28297297
9.449;-10.10440863;17.47589404
9.6;-9.423750295;14.97933775
9.75;-8.745172426;17.5924
9.898;-8.06940087;15.28297297
10.049;-7.382374631;17.47589404
10.2;-6.701716298;14.97933775
10.348;-6.027299355;17.83013514
10.499;-5.339211799;14.97933775
10.65;-4.658553466;17.47589404
10.797;-3.987603962;15.38693878
10.949;-3.348618588;14.88078947
11.1;-2.670027031;17.47589404
11.25;-1.991795905;15.0792
11.398;-1.367684572;15.28297297
11.549;-0.680658333;17.47589404
11.7;0;14.97933775
0;0;0
0;0;0
