time;position;velocity
0;-35.70502465;19.97245033
0.151;-34.91964965;17.47589404
0.301;-34.13670186;20.1056
0.45;-33.35411931;17.7104698
0.601;-32.61618306;17.47589404
0.751;-31.83323527;20.1056
0.902;-31.04506783;17.47589404
1.05;-30.31933278;17.83013514
1.201;-29.57888689;17.47589404
1.351;-28.7959391;20.1056
1.5;-28.01335654;17.7104698
1.651;-27.2754203;17.47589404
1.801;-26.54483084;17.5924
1.949;-25.81670096;17.83013514
2.1;-25.1286134;14.97933775
2.251;-24.44795507;17.47589404
2.402;-23.7149384;17.47589404
2.55;-22.98920335;17.83013514
2.701;-22.24875747;17.47589404
2.851;-21.51816801;17.5924
3;-20.83995306;15.18040268
3.151;-20.15507795;17.47589404
3.301;-19.47684682;15.0792
3.449;-18.80037716;17.83013514
3.6;-18.05993127;17.47589404
3.751;-17.37927293;14.97933775
3.902;-16.6986146;17.47589404
4.05;-16.02523789;15.28297297
4.201;-15.39056998;14.97933775
4.351;-14.71199211;17.5924
4.499;-14.03622056;15.28297297
4.65;-13.40155265;14.97933775
4.801;-12.77325265;14.97933775
4.949;-12.09883571;17.83013514
5.1;-11.41074815;14.97933775
5.251;-10.78244815;14.97933775
5.401;-10.15622862;15.0792
5.55;-9.530022952;15.18040268
5.701;-8.949864507;12.48278146
5.851;-8.37565656;15.0792
5.999;-7.80390356;12.73581081
6.15;-7.275013638;12.48278146
6.301;-6.699071972;14.97933775
6.449;-6.181730029;10.18864865
6.6;-5.706259759;12.48278146
6.751;-5.235034759;9.986225166
6.901;-4.817555068;10.0528
7.049;-4.401480846;10.18864865
7.2;-3.978368909;9.986225166
7.351;-3.611860575;7.489668874
7.499;-3.248472938;10.18864865
7.65;-2.877719334;7.489668874
7.801;-2.563569334;7.489668874
7.951;-2.250459566;7.5396
8.1;-1.937356732;7.590201342
8.251;-1.673456676;4.993112583
8.401;-1.412358498;7.5396
8.549;-1.152661164;5.094324324
8.7;-0.941105196;4.993112583
8.851;-0.731671863;4.993112583
8.999;-0.524318993;5.094324324
9.15;-0.312763024;4.993112583
9.301;-0.155688024;2.496556291
9.448;-0.104716667;0
9.599;-0.052358333;2.496556291
9.75;0;0
0;0;0
0;0;0
