time;position;velocity
0;-33.34836499;19.97245033
0.151;-32.51063166;19.97245033
0.301;-31.72803061;17.5924
0.452;-30.94021222;19.97245033
0.601;-30.16038512;17.7104698
0.751;-29.37255034;20.1056
0.899;-28.59276023;17.83013514
1.05;-27.85231434;17.47589404
1.201;-27.06693934;19.97245033
1.349;-26.28988619;17.83013514
1.5;-25.49708197;19.97245033
1.651;-24.71170697;17.47589404
1.801;-23.98111751;17.5924
1.952;-23.19329912;19.97245033
2.1;-22.41624597;17.83013514
2.251;-21.67580008;17.47589404
2.399;-20.95006504;17.83013514
2.55;-20.15726082;19.97245033
2.701;-19.37188582;17.47589404
2.851;-18.64129636;17.5924
3;-17.91072308;17.7104698
3.151;-17.1204285;19.97245033
3.301;-16.33782746;17.5924
3.449;-15.6620559;15.28297297
3.6;-14.97502966;17.47589404
3.751;-14.24201299;17.47589404
3.899;-13.51627795;17.83013514
4.05;-12.77583206;17.47589404
4.201;-11.99045706;19.97245033
4.351;-11.20785601;17.5924
4.499;-10.47972612;17.83013514
4.65;-9.73928023;17.47589404
4.801;-9.00626357;17.47589404
4.949;-8.28052852;17.83013514
5.1;-7.4877243;19.97245033
5.251;-6.7023493;17.47589404
5.401;-5.971759841;17.5924
5.55;-5.241186563;17.7104698
5.701;-4.450891988;19.97245033
5.851;-3.66829094;17.5924
5.999;-2.940161051;17.83013514
6.15;-2.199715161;17.47589404
6.301;-1.414340161;19.97245033
6.449;-0.637287016;17.83013514
6.6;0.155517207;19.97245033
6.751;0.940892207;17.47589404
6.901;1.72384;20.1056
7.049;2.503630111;17.83013514
7.2;3.296434334;19.97245033
7.351;4.081809334;17.47589404
7.499;4.859902712;20.3772973
7.65;5.653768252;17.47589404
7.801;6.439143252;19.97245033
7.951;7.221744301;17.5924
8.1;8.004675912;20.24053691
8.25;8.792862097;17.5924
8.401;9.580680486;19.97245033
0;0;0
0;0;0
