time;position;velocity
0;-28.59276023;17.83013514
0.151;-27.85231434;17.47589404
0.302;-27.06693934;19.97245033
0.45;-26.28988619;17.83013514
0.601;-25.49708197;19.97245033
0.752;-24.71170697;17.47589404
0.902;-23.98111751;17.5924
1.053;-23.19329912;19.97245033
1.201;-22.41624597;17.83013514
1.352;-21.67580008;17.47589404
1.5;-20.95006504;17.83013514
1.651;-20.15726082;19.97245033
1.802;-19.37188582;17.47589404
1.952;-18.64129636;17.5924
2.101;-17.91072308;17.7104698
2.252;-17.1204285;19.97245033
2.402;-16.33782746;17.5924
2.55;-15.6620559;15.28297297
2.701;-14.97502966;17.47589404
2.852;-14.24201299;17.47589404
3;-13.51627795;17.83013514
3.151;-12.77583206;17.47589404
3.302;-11.99045706;19.97245033
3.452;-11.20785601;17.5924
3.6;-10.47972612;17.83013514
3.751;-9.73928023;17.47589404
3.902;-9.00626357;17.47589404
4.05;-8.28052852;17.83013514
4.201;-7.4877243;19.97245033
4.352;-6.7023493;17.47589404
4.502;-5.971759841;17.5924
4.651;-5.241186563;17.7104698
4.802;-4.450891988;19.97245033
4.952;-3.66829094;17.5924
5.1;-2.940161051;17.83013514
5.251;-2.199715161;17.47589404
5.402;-1.414340161;19.97245033
5.55;-0.637287016;17.83013514
5.701;0.155517207;19.97245033
5.852;0.940892207;17.47589404
6.002;1.72384;20.1056
6.15;2.503630111;17.83013514
6.301;3.296434334;19.97245033
6.452;4.081809334;17.47589404
6.6;4.859902712;20.3772973
6.751;5.653768252;17.47589404
6.902;6.439143252;19.97245033
7.052;7.221744301;17.5924
7.201;8.004675912;20.24053691
7.351;8.792862097;17.5924
7.502;9.580680486;19.97245033
0;0;0
0;0;0
